{
    "index": {
        "download_fdroid": "Stáhnout F-Droid",
        "introduction": "F-Droid je instalovatelný katalog svobodných a opensource aplikací pro platformu Android. Klient usnadňuje procházení, instalaci a aktualizaci na vašem zařízení.",
        "gpg_signature": "PGP Podpis",
        "screenshot": "Snímek obrazovky F-Droid Android aplikace",
        "title": "Co je F-Droid?"
    },
    "navigation": {
        "about": "O aplikaci F-Droid",
        "documentation": "Dokumentace",
        "forum": "Forum",
        "browse": "Procházet",
        "contribute": "Podílejte se na vývoji F-Droid",
        "repomaker": "Tvorba repozitářů",
        "tutorials": "Návody",
        "news": "Novinky",
        "issues": "Problémy"
    },
    "package": {
        "website": "Webová stránka",
        "permissions": "Oprávnění",
        "donate": "Přispět",
        "liberapay": "Liberapay",
        "technical_info": "Technické informace",
        "build_metadata": "Metadata sestavení",
        "author": "Autor",
        "new_in_version": "Novinky ve verzi [latest_version]",
        "version_info": "<b>Verze [package_version]</b> ([package_version_code]) - Zveřejněna [package_added_date]",
        "changelog": "Seznam změn",
        "issue_tracker": "Systém sledování problémů",
        "signed_by_developer": "Je sestavená a podepsaná původním vývojářem.",
        "gpg_signature": "PGP Podpis",
        "signed_by_fdroid": "Je sestavená a podepsaná F-Droid a zaručeno, že odpovídá <a href=\"[source_code_url]\">tomuto archivu se zdrojovými kódy</a>.",
        "packages": "Balíčky",
        "download": "Stáhnout [file_extension] soubor",
        "license": "Licence",
        "minimum_android_version": "Tato verze vyžaduje alespoň Android [android_version] nebo novější.",
        "suggest_downloading_via_fdroid": "Ačkoli jsou jako možnost níže k dispozici i přímá stahování APK balíčků, měli byste vědět, že instalace tímto způsobem neobdrží oznámení o aktualizacích a je méně bezpečným způsobem stažení. Doporučujeme nainstalovat F-Droid klienta a použít ten.",
        "source_code": "Zdrojový kód",
        "flattr": "Flattr"
    },
    "sidebars": {
        "latest_packages": {
            "heading": "Nejnovější aplikace"
        },
        "news": {
            "heading": "Novinky"
        },
        "search": {
            "noscript": "Vyžaduje zapnutý JavaScript",
            "search": "Hledat",
            "heading": "Najít aplikaci"
        },
        "donate": {
            "bank_transfer_name": "Název",
            "bitcoin_alt": "Darovat pomocí Bitcoin",
            "powered_by_donations": "F-Droid můžeme provozovat pouze díky Vašim darům!",
            "via_bank_transfer": "Darovat Bankovním převodem",
            "litecoin_alt": "Darovat pomocí Litecoin",
            "flattr_alt": "Darovat pomocí Flattr",
            "paypal_alt": "Darovat pomocí PayPal",
            "liberapay_alt": "Darovat pomocí Liberapay",
            "heading": "Darovat"
        },
        "last_updated": {
            "heading": "Naposledy aktualizováno"
        }
    }
}
