{
    "misc": {
        "step_x": "Krok [number]",
        "step_x_description": "Krok [number]: [description]",
        "option_x_description": "Možnost [number]: [description]",
        "overview": {
            "title": "Co můžete dělat s aplikací F-Droid",
            "summary": "F-Droid je nezávislý, komunitně udržovaný app store pro Android který je kompletně zdarma a  se svobodným zdrojovým kódem. V rámci F-Droid můžete projít více než 1 200 aplikací se svobodným zdrojovým kódem, hledat a instalovat aplikace z vytvořených repositářů, nebo si vytvořit váš vlastní repositář. Otevřete f-droid.org na vašem telefonu s Androidem, stáhněte si aplikaci a můžete začít!",
            "tutorial_x_title": "Průvodce [number]: [title]"
        }
    },
    "add_repo": {
        "scan_qr_code": {
            "short_summary": "Naskenujte QR kód",
            "title": "Naskenujte QR kód z druhého zařízení"
        },
        "title": "Jak přidat repozitář do F-Droid",
        "overview": {
            "title": "Získat další obsah."
        }
    },
    "swap": {
        "intro": "Bez připojení k Internetu? Není problém. Stáhněte si aplikace od lidí okolo vás."
    },
    "create_repo": {
        "overview": {
            "title": "Přidejte své vlastní aplikace a soubory."
        },
        "update_repo": {
            "steps": {
                "step_4": "Pak novou verzi přidejte v sekci „Historie verze“."
            },
            "title": "Aktualizujte svůj repozitář"
        },
        "customize_repo": {
            "steps": {
                "step_2": "Klikněte na „Upravit“."
            }
        },
        "title": "Jak vytvořit repozitář"
    }
}
